mtd0: 00020000 00010000 "u-boot"
mtd1: 00010000 00010000 "info"
mtd2: 007a0000 00010000 "firmware"
mtd3: 001f0000 00010000 "kernel"
mtd4: 005b0000 00010000 "rootfs"
mtd5: 000e0000 00010000 "rootfs_data"
mtd6: 00020000 00010000 "tplink"
mtd7: 00010000 00010000 "art"
